Social Networks (Soc 321k)
…
Decreasing population size makes it less likely that the entire population becomes infected, because smaller networks saturate quickly and there are fewer nodes for the infection to miss. Increasing the number of initial infections makes a full outbreak more likely, since multiple seeds launch separate transmission chains simultaneously and are less likely to all die out by chance early on. Increasing the infection probability also makes a full outbreak more likely, because each contact between an infected and susceptible node is more likely to successfully transmit, raising the effective reproduction number above the threshold needed for widespread spread.

Exercise 2: Homophily Survey

Now we’ll turn to analyzing data from our homophily survey. In this survey, we collected information about an ego and five of their discussion partners (alters). All nonsensical responses and missing data have been dropped. We’ll read this file in from where it is stored (on Github) using the read_csv() function.

The data is formatted in long format, where each row represents a different alter. This means that we will have 5 rows for each ego.

## read in survey responses 
responses <- read_csv("https://raw.githubusercontent.com/caseybreen/networks_course/main/data/homophily_survey.csv")

## print out survey responses 
responses

# A tibble: 75 × 13
   ego_id date      ego_gender ego_age ego_classyear ego_origin ego_ai alter_id
    <dbl> <chr>     <chr>        <dbl> <chr>         <chr>      <chr>     <dbl>
 1      1 2/26/2026 F               19 Sophomore     Austin     No            1
 2      1 2/26/2026 F               19 Sophomore     Austin     No            2
 3      1 2/26/2026 F               19 Sophomore     Austin     No            3
 4      1 2/26/2026 F               19 Sophomore     Austin     No            4
 5      1 2/26/2026 F               19 Sophomore     Austin     No            5
 6      2 2/26/2026 M               20 Junior        Rest of US No            1
 7      2 2/26/2026 M               20 Junior        Rest of US No            2
 8      2 2/26/2026 M               20 Junior        Rest of US No            3
 9      2 2/26/2026 M               20 Junior        Rest of US No            4
10      2 2/26/2026 M               20 Junior        Rest of US No            5
# ℹ 65 more rows
# ℹ 5 more variables: alter_classyear <chr>, alter_gender <chr>,
#   alter_origin <chr>, alter_age <dbl>, alter_ai <chr>
…
